<?xml version="1.0" standalone="no"?>
<!DOCTYPE svg PUBLIC "-//W3C//DTD SVG 20010904//EN"
 "http://www.w3.org/TR/2001/REC-SVG-20010904/DTD/svg10.dtd">
<svg version="1.0" xmlns="http://www.w3.org/2000/svg"
 width="420.000000pt" height="312.000000pt" viewBox="0 0 420.000000 312.000000"
 preserveAspectRatio="xMidYMid meet">
<metadata>
Created by potrace 1.14, written by Peter Selinger 2001-2017
</metadata>
<g transform="translate(0.000000,312.000000) scale(0.100000,-0.100000)"
fill="#4B515D" stroke="none">
<path d="M165 3107 c-58 -15 -138 -98 -153 -159 -17 -67 -17 -2709 0 -2776 16
-65 95 -144 160 -160 68 -17 3788 -17 3856 0 65 16 144 95 160 160 17 67 17
2709 0 2776 -16 65 -95 144 -160 160 -63 16 -3803 15 -3863 -1z m3849 -122
c18 -9 40 -28 49 -44 16 -27 17 -125 17 -1385 l0 -1356 -34 -38 -34 -37 -1897
-3 c-2085 -2 -1940 -7 -1978 57 -16 27 -17 125 -17 1381 0 1486 -4 1384 59
1423 24 15 186 16 1914 17 1668 0 1893 -2 1921 -15z"/>
<path d="M985 2147 c-109 -37 -186 -103 -232 -202 -24 -51 -28 -73 -28 -145 0
-72 4 -94 28 -145 15 -33 47 -79 69 -102 23 -24 40 -44 37 -46 -2 -2 -20 -13
-40 -25 -52 -31 -133 -121 -163 -180 -29 -57 -56 -151 -56 -194 0 -27 1 -28
58 -28 l57 0 12 59 c16 86 49 146 116 207 135 125 339 125 474 0 67 -61 100
-121 116 -207 l12 -59 57 0 c57 0 58 1 58 28 0 43 -27 137 -56 194 -30 59
-111 149 -163 180 -20 12 -38 23 -40 25 -3 2 14 22 37 46 22 23 54 69 69 102
24 51 28 73 28 145 0 72 -4 94 -28 146 -57 123 -177 204 -311 211 -41 1 -88
-3 -111 -10z m176 -122 c24 -9 63 -34 86 -57 100 -98 96 -248 -7 -341 -100
-90 -220 -90 -320 0 -104 93 -107 243 -7 341 69 68 158 88 248 57z"/>
<path d="M2040 1980 l0 -60 780 0 780 0 0 60 0 60 -780 0 -780 0 0 -60z"/>
<path d="M2040 1620 l0 -60 660 0 660 0 0 60 0 60 -660 0 -660 0 0 -60z"/>
<path d="M2040 1260 l0 -60 780 0 780 0 0 60 0 60 -780 0 -780 0 0 -60z"/>
</g>
</svg>
